\relax 
\citation{Lison2013}
\citation{Yaghoubzadeh.etal2013}
\citation{Rane.etal2014}
\citation{hough-schlangen:2016:SIGDIAL}
\citation{Sacks1974}
\citation{Heldner2010}
\citation{Duncan1972}
\citation{Kendon1967}
\citation{Yngve1970}
\citation{Sacks1974}
\citation{bockgaard2007}
\citation{deRuiter2006}
\citation{Levinson1983}
\citation{deRuiter2006}
\citation{torreira2015}
\citation{Raux2009}
\citation{Raux2012}
\citation{Raux2012thesis}
\citation{Schlangen2006}
\citation{Atterer2008}
\citation{zarriess2016pentoref}
\citation{zarriess2016pentoref}
\@writefile{toc}{\contentsline {section}{\numberline {1} Introduction}{1}}
\@writefile{toc}{\contentsline {section}{\numberline {2} {\color {red}\sout  {End of Turn }}{\color {blue}\uwave  {End-of-Turn }}Detection}{1}}
\newlabel{sec:endofturndetection}{{2}{1}}
\@writefile{toc}{\contentsline {section}{\numberline {3} Data and Features}{1}}
\newlabel{sec:corpus}{{3}{1}}
\@writefile{toc}{\contentsline {subsection}{\numberline {3.1} {\color {red}\sout  {Corpus and Preprocessing}}}{1}}
\newlabel{eg:pento}{{(1)}{1}}
\citation{Atterer2008}
\citation{torreira2015}
\citation{Atterer2008}
\citation{Sakhnov2009}
\citation{torreira2015}
\citation{Sakhnov2009}
\citation{Raux2012}
\citation{Ferrer2003}
\citation{Clark.etal13CMCL}
\citation{Hough2014}
\citation{Clark.etal13CMCL}
\citation{StolckeShriberg96}
\citation{Raux2012}
\@writefile{toc}{\contentsline {subsection}{\numberline {3.1} Acoustic Features}{2}}
\@writefile{lof}{\contentsline {figure}{\numberline {1}{\ignorespaces Local tri-gram and utterance WML values and Entropy values and Intensity slope for an example turn. X-axis annotations are words and their end times.\relax }}{2}}
\providecommand*\caption@xref[2]{\@setref\relax\@undefined{#1}}
\newlabel{fig:wml}{{1}{2}}
\@writefile{toc}{\contentsline {subsection}{\numberline {3.2} Linguistic Features with Enriched Language Models}{2}}
\newlabel{eq:WML}{{1}{2}}
\citation{Hough2014}
\citation{chollet2015keras}
\citation{Kingma2014}
\@writefile{lof}{\contentsline {figure}{\numberline {2}{\ignorespaces Features: Local tri-gram WML values (left) overall Entropy values as a function of time for each speaker in the corpus (middle) and vowel phoneme durations (right) for predicting the end-of-turn.\relax }}{3}}
\newlabel{fig:wmlhistograms}{{2}{3}}
\@writefile{lof}{\contentsline {figure}{\numberline {3}{\ignorespaces Overall architecture of the system\relax }}{3}}
\newlabel{fig:architecture}{{3}{3}}
\@writefile{toc}{\contentsline {subsection}{\numberline {3.3} Feature Analysis for Predictive Ability}{3}}
\@writefile{toc}{\contentsline {section}{\numberline {4} EOT Detection System Components}{3}}
\newlabel{sec:system}{{4}{3}}
\@writefile{toc}{\contentsline {subsection}{\numberline {4.1} LSTM}{3}}
\@writefile{toc}{\contentsline {subsection}{\numberline {4.2} Decoding optimization through windowing}{3}}
\citation{Raux2012}
\citation{Raux2012thesis}
\citation{dekok2009}
\citation{Raux2012}
\citation{Sacks1974}
\@writefile{toc}{\contentsline {section}{\numberline {5} Experimental Set-up}{4}}
\newlabel{sec:experiment}{{5}{4}}
\newlabel{eq:tradeoff}{{2}{4}}
\@writefile{toc}{\contentsline {section}{\numberline {6} Results}{4}}
\@writefile{toc}{\contentsline {section}{\numberline {7} Conclusion}{4}}
\bibstyle{IEEEtran}
\bibdata{refs}
\bibcite{Lison2013}{1}
\bibcite{Yaghoubzadeh.etal2013}{2}
\bibcite{Rane.etal2014}{3}
\bibcite{hough-schlangen:2016:SIGDIAL}{4}
\bibcite{Sacks1974}{5}
\bibcite{Heldner2010}{6}
\bibcite{Duncan1972}{7}
\bibcite{Kendon1967}{8}
\bibcite{Yngve1970}{9}
\bibcite{bockgaard2007}{10}
\bibcite{deRuiter2006}{11}
\bibcite{Levinson1983}{12}
\bibcite{torreira2015}{13}
\bibcite{Raux2009}{14}
\bibcite{Raux2012}{15}
\bibcite{Raux2012thesis}{16}
\bibcite{Schlangen2006}{17}
\bibcite{Atterer2008}{18}
\bibcite{zarriess2016pentoref}{19}
\bibcite{Sakhnov2009}{20}
\bibcite{Ferrer2003}{21}
\bibcite{Clark.etal13CMCL}{22}
\@writefile{lot}{\contentsline {table}{\numberline {1}{\ignorespaces Results from our systems against the baseline.\relax }}{5}}
\newlabel{table:results}{{1}{5}}
\@writefile{lof}{\contentsline {figure}{\numberline {4}{\ignorespaces The trade-off between latency (x) and cut-in rate (y) with our LSTM systems against a silence-thresholding baseline.\relax }}{5}}
\newlabel{fig:tradeoff}{{4}{5}}
\@writefile{toc}{\contentsline {section}{\numberline {8} {\color {blue}\uwave  {Acknowledgements}}}{5}}
\@writefile{toc}{\contentsline {section}{\numberline {9} References}{5}}
\bibcite{Hough2014}{23}
\bibcite{StolckeShriberg96}{24}
\bibcite{chollet2015keras}{25}
\bibcite{Kingma2014}{26}
\bibcite{dekok2009}{27}
