% Generated by IEEEtran.bst, version: 1.13 (2008/09/30)
\begin{thebibliography}{10}
\providecommand{\url}[1]{#1}
\csname url@samestyle\endcsname
\providecommand{\newblock}{\relax}
\providecommand{\bibinfo}[2]{#2}
\providecommand{\BIBentrySTDinterwordspacing}{\spaceskip=0pt\relax}
\providecommand{\BIBentryALTinterwordstretchfactor}{4}
\providecommand{\BIBentryALTinterwordspacing}{\spaceskip=\fontdimen2\font plus
\BIBentryALTinterwordstretchfactor\fontdimen3\font minus
  \fontdimen4\font\relax}
\providecommand{\BIBforeignlanguage}[2]{{%
\expandafter\ifx\csname l@#1\endcsname\relax
\typeout{** WARNING: IEEEtran.bst: No hyphenation pattern has been}%
\typeout{** loaded for the language `#1'. Using the pattern for}%
\typeout{** the default language instead.}%
\else
\language=\csname l@#1\endcsname
\fi
#2}}
\providecommand{\BIBdecl}{\relax}
\BIBdecl

\bibitem{Lison2013}
P.~Lison, ``Structured probabilistic modelling for dialogue management,'' Ph.D.
  dissertation, University of Oslo, 2013.

\bibitem{Yaghoubzadeh.etal2013}
R.~Yaghoubzadeh, M.~Kramer, K.~Pitsch, and S.~Kopp, ``Virtual agents as daily
  assistants for elderly or cognitively impaired people,'' in
  \emph{International Workshop on Intelligent Virtual Agents}.\hskip 1em plus
  0.5em minus 0.4em\relax Springer, 2013, pp. 79--91.

\bibitem{Rane.etal2014}
P.~Rane, V.~Mhatre, and L.~Kurup, ``Study of a home robot: Jibo,'' in
  \emph{International Journal of Engineering Research and Technology}, vol.~3,
  no. 10 (October-2014).\hskip 1em plus 0.5em minus 0.4em\relax ESRSA
  Publications, 2014.

\bibitem{hough-schlangen:2016:SIGDIAL}
\BIBentryALTinterwordspacing
J.~Hough and D.~Schlangen, ``Investigating fluidity for human-robot interaction
  with real-time, real-world grounding strategies,'' in \emph{Proceedings of
  the 17th Annual Meeting of the Special Interest Group on Discourse and
  Dialogue}.\hskip 1em plus 0.5em minus 0.4em\relax Los Angeles: Association
  for Computational Linguistics, September 2016, pp. 288--298. [Online].
  Available: \url{http://www.aclweb.org/anthology/W16-3637}
\BIBentrySTDinterwordspacing

\bibitem{Sacks1974}
H.~Sacks, E.~A. Schegloff, and G.~Jefferson, ``A simplest systematics for the
  organization of turn taking for conversation,'' \emph{Language}, vol.~50, pp.
  696--735, 1974.

\bibitem{Heldner2010}
M.~Heldner and J.~Edlund, ``Pauses, gaps and overlaps in conversations,''
  \emph{Journal of Phonetics}, vol.~38, no.~4, pp. 555--568, 2010.

\bibitem{Duncan1972}
S.~J. Duncan, ``Some signals and rules for taking speaking turns in
  conversations,'' \emph{Journal of Personality and Social Psychology},
  vol.~23, no.~2, pp. 283--292, 1972.

\bibitem{Kendon1967}
A.~Kendon, ``Some functions of gaze -- direction in social interaction,''
  \emph{Acta Psychologica}, vol.~26, pp. 22--63, 1967.

\bibitem{Yngve1970}
V.~H. Yngve, ``On getting a word in edgewise,'' in \emph{Papers from the sixth
  regional meeting of the Chicago Linguistic Society}.\hskip 1em plus 0.5em
  minus 0.4em\relax Chicago Linguistic Society, 1970, pp. 567--578.

\bibitem{bockgaard2007}
G.~Bockgaard, ``Syntax och prosodi vid turbytesplatser: Till beskrivningen av
  svenskans turtagning,'' in \emph{Interaktion och kontext: Nio studier av
  svenska samtal}, 1st~ed., E.~Engdahl and A.-M. London, Eds.\hskip 1em plus
  0.5em minus 0.4em\relax Lund: Studentlitteratur, 2007, pp. 139--183.

\bibitem{deRuiter2006}
J.~P. De~Ruiter, H.~Mitterer, and N.~J. Enfield, ``Predicting the end of a
  speaker’s turn; a cognitive cornerstone of conversation,'' \emph{Language},
  vol.~82, no.~3, pp. 515--535, 2006.

\bibitem{Levinson1983}
\BIBentryALTinterwordspacing
S.~C. Levinson, \emph{\BIBforeignlanguage{eng}{Pragmatics}}, ser. Cambridge
  textbooks in linguistics.\hskip 1em plus 0.5em minus 0.4em\relax Cambridge
  [u.a.]: Cambridge Univ. Pr., 1983. [Online]. Available:
  \url{http://digitool.hbz-nrw.de:1801/webclient/DeliveryManager?pid=2865895&custom\_att\_2=simple\_viewer
  Interna: Inhaltsverzeichnis}
\BIBentrySTDinterwordspacing

\bibitem{torreira2015}
S.~B{\"o}gels and F.~Torreira, ``Listeners use intonational phrase boundaries
  to project turn ends in spoken interaction,'' \emph{Journal of Phonetics},
  vol.~52, pp. 46--57, 2015.

\bibitem{Raux2009}
A.~Raux and M.~Eskenazi, ``A finite-state turn-taking model for spoken dialog
  systems,'' in \emph{Proceedings of Human Language Technologies: The 2009
  Annual Conference of the North American Chapter of the Association for
  Computational Linguistics}.\hskip 1em plus 0.5em minus 0.4em\relax
  Association for Computational Linguistics, 2009, pp. 629--637.

\bibitem{Raux2012}
------, ``Optimizing the turn-taking behavior of task-oriented spoken dialog
  systems,'' \emph{ACM Trans. Speech Lang. Process.}, vol.~9, no.~1, 5 2012.

\bibitem{Raux2012thesis}
\BIBentryALTinterwordspacing
A.~Raux, ``\BIBforeignlanguage{eng}{Flexible turn-taking for spoken dialog
  systems},''
  \emph{\BIBforeignlanguage{eng}{http://www-2.cs.cmu.edu/~antoine/thesis\_antoine.pdf}},
  5 2012. [Online]. Available:
  \url{http://citeseerx.ist.psu.edu/viewdoc/summary?doi=10.1.1.151.9300}
\BIBentrySTDinterwordspacing

\bibitem{Schlangen2006}
D.~Schlangen, ``From reaction to prediction: Experiments with computational
  models of turn-taking,'' \emph{Proceedings of Interspeech 2006, Panel on
  Prosody of Dialogue Acts and Turn-Taking}, 2006.

\bibitem{Atterer2008}
M.~Atterer, T.~Baumann, and D.~Schlangen, ``Towards incremental
  end-of-utterance detection in dialogue systems,'' \emph{Proceedings of the
  22nd International Conference on Computational Linguistics}, 2008.

\bibitem{zarriess2016pentoref}
S.~Zarrie{\ss}, J.~Hough, C.~Kennington, R.~Manuvinakurike, D.~DeVault,
  R.~Fern{\'a}ndez, and D.~Schlangen, ``Pentoref: A corpus of spoken references
  in task-oriented dialogues,'' in \emph{10th edition of the Language Resources
  and Evaluation Conference}, 2016.

\bibitem{Sakhnov2009}
K.~Sakhnov, E.~Verteletskaya, and B.~Simak, ``Dynamical energy-based
  speech/silence detector for speech enhancement applications,'' 2009.

\bibitem{Ferrer2003}
L.~Ferrer, E.~Shriberg, and A.~Stolcke, ``A prosody-based approach to
  end-of-utterance detection that does not require speech recognition,'' in
  \emph{Acoustics, Speech, and Signal Processing, 2003.
  Proceedings.(ICASSP'03). 2003 IEEE International Conference on},
  vol.~1.\hskip 1em plus 0.5em minus 0.4em\relax IEEE, 2003, pp. I--608.

\bibitem{Clark.etal13CMCL}
\BIBentryALTinterwordspacing
A.~Clark, G.~Giorgolo, and S.~Lappin, ``Statistical representation of
  grammaticality judgements: the limits of n-gram models,'' in
  \emph{Proceedings of the Fourth Annual Workshop on Cognitive Modeling and
  Computational Linguistics (CMCL)}.\hskip 1em plus 0.5em minus 0.4em\relax
  Sofia, Bulgaria: Association for Computational Linguistics, August 2013, pp.
  28--36. [Online]. Available: \url{http://www.aclweb.org/anthology/W13-2604}
\BIBentrySTDinterwordspacing

\bibitem{Hough2014}
\BIBentryALTinterwordspacing
J.~Hough and M.~Purver, ``Strongly incremental repair detection,'' in
  \emph{Proceedings of the 2014 Conference on Empirical Methods in Natural
  Language Processing (EMNLP)}.\hskip 1em plus 0.5em minus 0.4em\relax Doha,
  Qatar: Association for Computational Linguistics, October 2014, pp. 78--89.
  [Online]. Available: \url{http://www.aclweb.org/anthology/D14-1009}
\BIBentrySTDinterwordspacing

\bibitem{StolckeShriberg96}
A.~Stolcke and E.~Shriberg, ``Statistical language modeling for speech
  disfluencies,'' in \emph{Acoustics, Speech, and Signal Processing, 1996.
  ICASSP-96. Conference Proceedings., 1996 IEEE International Conference on},
  vol.~1.\hskip 1em plus 0.5em minus 0.4em\relax IEEE, 1996, pp. 405--408.

\bibitem{chollet2015keras}
F.~Chollet, ``Keras: Deep learning library for theano and tensorflow,'' 2015.

\bibitem{Kingma2014}
D.~Kingma and J.~Ba, ``Adam: A method for stochastic optimization,''
  \emph{arXiv preprint arXiv:1412.6980}, 2014.

\bibitem{dekok2009}
I.~De~Kok and D.~Heylen, ``Multimodal end-of-turn prediction in multi-party
  meetings,'' in \emph{Proceedings of the 11th International Conference on
  Multimodal Interfaces}.\hskip 1em plus 0.5em minus 0.4em\relax ICMI, 11 2009.

\end{thebibliography}
